…
``` r
cont_ave <- gapminder %>% 
  group_by(continent, year) %>% 
  summarise(totalpop = sum(pop)) %>% 
   ungroup()
```

    ## `summarise()` has grouped output by 'continent'. You can override using the `.groups` argument.

``` r
cont_ave
```

    ## # A tibble: 60 x 3
    ##    continent  year  totalpop
    ##    <chr>     <int>     <dbl>
    ##  1 Africa     1952 237640501
    ##  2 Africa     1957 264837738
    ##  3 Africa     1962 296516865
    ##  4 Africa     1967 335289489
    ##  5 Africa     1972 379879541
    ##  6 Africa     1977 433061021
    ##  7 Africa     1982 499348587
    ##  8 Africa     1987 574834110
    ##  9 Africa     1992 659081517
    ## 10 Africa     1997 743832984
    ## # ... with 50 more rows
…
