Statistics – UQ Library Training Intensives
…
cor(players$height_cm, players$age, method = "spearman")

[1] 0.007604345

Reminder about groupbys

Before we move to inferential statistics, it’s worth reiterating the power of groupbys discussed in the second workshop.

To group by a specific variable, like “positions”, we use

players %>% 
    group_by(positions)

# A tibble: 5,932 × 7
# Groups:   positions [4]
   name                birth_date height_cm positions  nationality   age club   
   <chr>               <chr>          <dbl> <chr>      <chr>       <int> <chr>  
 1 James Milner        1986-01-04       175 Midfield   England        38 Bright…
 2 Anastasios Tsokanis 1991-05-02       176 Midfield   Greece         33 Volou …
 3 Jonas Hofmann       1992-07-14       176 Midfield   Germany        32 Bayer …
 4 Pepe Reina          1982-08-31       188 Goalkeeper Spain          42 Calcio…
 5 Lionel Carole       1991-04-12       180 Defender   France         33 Kayser…
 6 Ludovic Butelle     1983-04-03       188 Goalkeeper France         41 Stade …
 7 Daley Blind         1990-03-09       180 Defender   Netherlands    34 Girona…
 8 Craig Gordon        1982-12-31       193 Goalkeeper Scotland       41 Heart …
 9 Dimitrios Sotiriou  1987-09-13       185 Goalkeeper Greece         37 Omilos…
10 Alessio Cragno      1994-06-28       184 Goalkeeper Italy          30 Associ…
# ℹ 5,922 more rows
…
