…
``` r
class(gapminder$country)
```

    ## [1] "factor"

If we want a nicer display in the console, we can convert our dataframe
to a “tibble”. Try this:

``` r
gapminder <- as_tibble(gapminder)
gapminder
```

    ## # A tibble: 1,704 x 6
    ##    country      year      pop continent lifeExp gdpPercap
    ##    <fct>       <int>    <dbl> <fct>       <dbl>     <dbl>
    ##  1 Afghanistan  1952  8425333 Asia         28.8      779.
    ##  2 Afghanistan  1957  9240934 Asia         30.3      821.
    ##  3 Afghanistan  1962 10267083 Asia         32.0      853.
    ##  4 Afghanistan  1967 11537966 Asia         34.0      836.
    ##  5 Afghanistan  1972 13079460 Asia         36.1      740.
    ##  6 Afghanistan  1977 14880372 Asia         38.4      786.
    ##  7 Afghanistan  1982 12881816 Asia         39.9      978.
    ##  8 Afghanistan  1987 13867957 Asia         40.8      852.
    ##  9 Afghanistan  1992 16317921 Asia         41.7      649.
    ## 10 Afghanistan  1997 22227415 Asia         41.8      635.
    ## # … with 1,694 more rows
…
### 3\. Pick variables with `select()`

Select allows us to pick variables (i.e. columns) from the dataset. For
example, to only keep the data about year, country and GDP per capita:

``` r
(gap_small <- select(gapminder, year, country, gdpPercap))
```

    ## # A tibble: 1,704 x 3
    ##     year country     gdpPercap
    ##    <int> <fct>           <dbl>
    ##  1  1952 Afghanistan      779.
    ##  2  1957 Afghanistan      821.
    ##  3  1962 Afghanistan      853.
    ##  4  1967 Afghanistan      836.
    ##  5  1972 Afghanistan      740.
    ##  6  1977 Afghanistan      786.
    ##  7  1982 Afghanistan      978.
    ##  8  1987 Afghanistan      852.
    ##  9  1992 Afghanistan      649.
    ## 10  1997 Afghanistan      635.
    ## # … with 1,694 more rows
…
Here’s another example with the `filter()` verb:

``` r
gapminder %>%
  filter(country != "France")
```

    ## # A tibble: 1,692 x 6
    ##    country      year      pop continent lifeExp gdpPercap
    ##    <fct>       <int>    <dbl> <fct>       <dbl>     <dbl>
    ##  1 Afghanistan  1952  8425333 Asia         28.8      779.
    ##  2 Afghanistan  1957  9240934 Asia         30.3      821.
    ##  3 Afghanistan  1962 10267083 Asia         32.0      853.
    ##  4 Afghanistan  1967 11537966 Asia         34.0      836.
    ##  5 Afghanistan  1972 13079460 Asia         36.1      740.
    ##  6 Afghanistan  1977 14880372 Asia         38.4      786.
    ##  7 Afghanistan  1982 12881816 Asia         39.9      978.
    ##  8 Afghanistan  1987 13867957 Asia         40.8      852.
    ##  9 Afghanistan  1992 16317921 Asia         41.7      649.
    ## 10 Afghanistan  1997 22227415 Asia         41.8      635.
    ## # … with 1,682 more rows

… becomes:

``` r
filter(gapminder, country != "France")
```

    ## # A tibble: 1,692 x 6
    ##    country      year      pop continent lifeExp gdpPercap
    ##    <fct>       <int>    <dbl> <fct>       <dbl>     <dbl>
    ##  1 Afghanistan  1952  8425333 Asia         28.8      779.
    ##  2 Afghanistan  1957  9240934 Asia         30.3      821.
    ##  3 Afghanistan  1962 10267083 Asia         32.0      853.
    ##  4 Afghanistan  1967 11537966 Asia         34.0      836.
    ##  5 Afghanistan  1972 13079460 Asia         36.1      740.
    ##  6 Afghanistan  1977 14880372 Asia         38.4      786.
    ##  7 Afghanistan  1982 12881816 Asia         39.9      978.
    ##  8 Afghanistan  1987 13867957 Asia         40.8      852.
    ##  9 Afghanistan  1992 16317921 Asia         41.7      649.
    ## 10 Afghanistan  1997 22227415 Asia         41.8      635.
    ## # … with 1,682 more rows
…
### 4\. Create new variables with `mutate()`

Have a look at what the verb `mutate()` can do with `?mutate`.

Let’s see what the two following variables can be used for:

``` r
gapminder %>%
    select(gdpPercap, pop)
```

    ## # A tibble: 1,704 x 2
    ##    gdpPercap      pop
    ##        <dbl>    <dbl>
    ##  1      779.  8425333
    ##  2      821.  9240934
    ##  3      853. 10267083
    ##  4      836. 11537966
    ##  5      740. 13079460
    ##  6      786. 14880372
    ##  7      978. 12881816
    ##  8      852. 13867957
    ##  9      649. 16317921
    ## 10      635. 22227415
    ## # … with 1,694 more rows
…
You can reuse a variable computed by ‘mutate()’ straight away. For
example, we also want a more readable version of our new variable, in
million dollars:

``` r
(gap_gdp <- gapminder %>%
    mutate(gdp = gdpPercap * pop, gdpMil = gdp / 10^6))
```

    ## # A tibble: 1,704 x 8
    ##    country      year     pop continent lifeExp gdpPercap         gdp gdpMil
    ##    <fct>       <int>   <dbl> <fct>       <dbl>     <dbl>       <dbl>  <dbl>
    ##  1 Afghanistan  1952  8.43e6 Asia         28.8      779.     6.57e 9  6567.
    ##  2 Afghanistan  1957  9.24e6 Asia         30.3      821.     7.59e 9  7585.
    ##  3 Afghanistan  1962  1.03e7 Asia         32.0      853.     8.76e 9  8759.
    ##  4 Afghanistan  1967  1.15e7 Asia         34.0      836.     9.65e 9  9648.
    ##  5 Afghanistan  1972  1.31e7 Asia         36.1      740.     9.68e 9  9679.
    ##  6 Afghanistan  1977  1.49e7 Asia         38.4      786.     1.17e10 11698.
    ##  7 Afghanistan  1982  1.29e7 Asia         39.9      978.     1.26e10 12599.
    ##  8 Afghanistan  1987  1.39e7 Asia         40.8      852.     1.18e10 11821.
    ##  9 Afghanistan  1992  1.63e7 Asia         41.7      649.     1.06e10 10596.
    ## 10 Afghanistan  1997  2.22e7 Asia         41.8      635.     1.41e10 14122.
    ## # … with 1,694 more rows
…
### 6\. Change the scope with `group_by()`

`group_by()` changes the scope of the following function(s) from
operating on the entire dataset to operating on it group-by-group.

See the effect of the grouping step:

``` r
gapminder %>%
    group_by(continent)
```

    ## # A tibble: 1,704 x 6
    ## # Groups:   continent [5]
    ##    country      year      pop continent lifeExp gdpPercap
    ##    <fct>       <int>    <dbl> <fct>       <dbl>     <dbl>
    ##  1 Afghanistan  1952  8425333 Asia         28.8      779.
    ##  2 Afghanistan  1957  9240934 Asia         30.3      821.
    ##  3 Afghanistan  1962 10267083 Asia         32.0      853.
    ##  4 Afghanistan  1967 11537966 Asia         34.0      836.
    ##  5 Afghanistan  1972 13079460 Asia         36.1      740.
    ##  6 Afghanistan  1977 14880372 Asia         38.4      786.
    ##  7 Afghanistan  1982 12881816 Asia         39.9      978.
    ##  8 Afghanistan  1987 13867957 Asia         40.8      852.
    ##  9 Afghanistan  1992 16317921 Asia         41.7      649.
    ## 10 Afghanistan  1997 22227415 Asia         41.8      635.
    ## # … with 1,694 more rows
…
#### Challenge 4 – max life expectancy

Group by country, and find out the maximum life expectancy ever recorded

Hint: `?max`

``` r
gapminder %>% 
    group_by(country) %>%
    summarise(maxLE = max(lifeExp))
```

    ## # A tibble: 142 x 2
    ##    country     maxLE
    ##    <fct>       <dbl>
    ##  1 Afghanistan  43.8
    ##  2 Albania      76.4
    ##  3 Algeria      72.3
    ##  4 Angola       42.7
    ##  5 Argentina    75.3
    ##  6 Australia    81.2
    ##  7 Austria      79.8
    ##  8 Bahrain      75.6
    ##  9 Bangladesh   64.1
    ## 10 Belgium      79.4
    ## # … with 132 more rows

## More examples

Another example of new variable with `mutate()`, with a different
dataset that dplyr provides:

``` r
starwars %>% 
  mutate(bmi = mass / ((height / 100)  ^ 2)) %>%
  select(name:mass, bmi) # we can select ranges
```

    ## # A tibble: 87 x 4
    ##    name               height  mass   bmi
    ##    <chr>               <int> <dbl> <dbl>
    ##  1 Luke Skywalker        172    77  26.0
    ##  2 C-3PO                 167    75  26.9
    ##  3 R2-D2                  96    32  34.7
    ##  4 Darth Vader           202   136  33.3
    ##  5 Leia Organa           150    49  21.8
    ##  6 Owen Lars             178   120  37.9
    ##  7 Beru Whitesun lars    165    75  27.5
    ##  8 R5-D4                  97    32  34.0
    ##  9 Biggs Darklighter     183    84  25.1
    ## 10 Obi-Wan Kenobi        182    77  23.2
    ## # … with 77 more rows
…
