…
``` r
read_csv("acorn_sat_v2_daily_tmax/tmax.001019.daily.csv")
```

    ## Parsed with column specification:
    ## cols(
    ##   date = col_date(format = ""),
    ##   `maximum temperature (degC)` = col_double(),
    ##   `site number` = col_character(),
    ##   `site name` = col_character()
    ## )

    ## # A tibble: 28,398 x 4
    ##    date       `maximum temperature (degC)` `site number` `site name`
    ##    <date>                            <dbl> <chr>         <chr>      
    ##  1 NA                                 NA   001019        KALUMBURU  
    ##  2 1941-09-01                         29.8 <NA>          <NA>       
    ##  3 1941-09-02                         29.8 <NA>          <NA>       
    ##  4 1941-09-03                         29.3 <NA>          <NA>       
    ##  5 1941-09-04                         37.1 <NA>          <NA>       
    ##  6 1941-09-05                         30.9 <NA>          <NA>       
    ##  7 1941-09-06                         NA   <NA>          <NA>       
    ##  8 1941-09-07                         NA   <NA>          <NA>       
    ##  9 1941-09-08                         32   <NA>          <NA>       
    ## 10 1941-09-09                         32.7 <NA>          <NA>       
    ## # … with 28,388 more rows
…
``` r
read_csv("acorn_sat_v2_daily_tmax/tmax.001019.daily.csv") %>%
  slice(-1) # remove the first row
```

    ## Parsed with column specification:
    ## cols(
    ##   date = col_date(format = ""),
    ##   `maximum temperature (degC)` = col_double(),
    ##   `site number` = col_character(),
    ##   `site name` = col_character()
    ## )

    ## # A tibble: 28,397 x 4
    ##    date       `maximum temperature (degC)` `site number` `site name`
    ##    <date>                            <dbl> <chr>         <chr>      
    ##  1 1941-09-01                         29.8 <NA>          <NA>       
    ##  2 1941-09-02                         29.8 <NA>          <NA>       
    ##  3 1941-09-03                         29.3 <NA>          <NA>       
    ##  4 1941-09-04                         37.1 <NA>          <NA>       
    ##  5 1941-09-05                         30.9 <NA>          <NA>       
    ##  6 1941-09-06                         NA   <NA>          <NA>       
    ##  7 1941-09-07                         NA   <NA>          <NA>       
    ##  8 1941-09-08                         32   <NA>          <NA>       
    ##  9 1941-09-09                         32.7 <NA>          <NA>       
    ## 10 1941-09-10                         33.4 <NA>          <NA>       
    ## # … with 28,387 more rows
…
``` r
read_csv("acorn_sat_v2_daily_tmax/tmax.001019.daily.csv") %>%
  slice(-1) %>% 
  select(date, max.temp = `maximum temperature (degC)`) # only keep two variables
```

    ## Parsed with column specification:
    ## cols(
    ##   date = col_date(format = ""),
    ##   `maximum temperature (degC)` = col_double(),
    ##   `site number` = col_character(),
    ##   `site name` = col_character()
    ## )

    ## # A tibble: 28,397 x 2
    ##    date       max.temp
    ##    <date>        <dbl>
    ##  1 1941-09-01     29.8
    ##  2 1941-09-02     29.8
    ##  3 1941-09-03     29.3
    ##  4 1941-09-04     37.1
    ##  5 1941-09-05     30.9
    ##  6 1941-09-06     NA  
    ##  7 1941-09-07     NA  
    ##  8 1941-09-08     32  
    ##  9 1941-09-09     32.7
    ## 10 1941-09-10     33.4
    ## # … with 28,387 more rows
…
Back in our script, we can now test it on our first file:

``` r
read_station("acorn_sat_v2_daily_tmax/tmax.002012.daily.csv")
```

    ## Parsed with column specification:
    ## cols(
    ##   date = col_date(format = ""),
    ##   `maximum temperature (degC)` = col_double(),
    ##   `site number` = col_character(),
    ##   `site name` = col_character()
    ## )

    ## # A tibble: 39,811 x 3
    ##    date       max.temp filename                                     
    ##    <date>        <dbl> <chr>                                        
    ##  1 1910-01-01     40.5 acorn_sat_v2_daily_tmax/tmax.002012.daily.csv
    ##  2 1910-01-02     40.7 acorn_sat_v2_daily_tmax/tmax.002012.daily.csv
    ##  3 1910-01-03     40.5 acorn_sat_v2_daily_tmax/tmax.002012.daily.csv
    ##  4 1910-01-04     36.2 acorn_sat_v2_daily_tmax/tmax.002012.daily.csv
    ##  5 1910-01-05     40.7 acorn_sat_v2_daily_tmax/tmax.002012.daily.csv
    ##  6 1910-01-06     36.7 acorn_sat_v2_daily_tmax/tmax.002012.daily.csv
    ##  7 1910-01-07     40.7 acorn_sat_v2_daily_tmax/tmax.002012.daily.csv
    ##  8 1910-01-08     36.7 acorn_sat_v2_daily_tmax/tmax.002012.daily.csv
    ##  9 1910-01-09     37.6 acorn_sat_v2_daily_tmax/tmax.002012.daily.csv
    ## 10 1910-01-10     36.7 acorn_sat_v2_daily_tmax/tmax.002012.daily.csv
    ## # … with 39,801 more rows
…
