Project Hospital Report – UQ Library Training Intensives
…
    filter, lag

The following objects are masked from 'package:base':

    intersect, setdiff, setequal, union

subset=dataset %>% filter(Facility.HHS.Desc=="Mater Adult")

To group we created a new dataset and then grouped by Facility code number

aggregated=dataset
aggregated %>% group_by(Facility.HHS.Code)

# A tibble: 9,442 × 13
# Groups:   Facility.HHS.Code [105]
     X.1     X Facility.HHS.Code Facility.HHS.Desc Last.Month.in.QTR
   <int> <int>             <int> <chr>             <chr>            
 1     1     0                 1 Mater Adult       Jun-24           
 2     2     1                 1 Mater Adult       Jun-24           
 3     3     2                 1 Mater Adult       Jun-24           
 4     4     3                 1 Mater Adult       Jun-24           
 5     5     4                 1 Mater Adult       Jun-24           
 6     6     5                 1 Mater Adult       Jun-24           
 7     7     6                 4 Prince Charles    Jun-24           
 8     8     7                 4 Prince Charles    Jun-24           
 9     9     8                 4 Prince Charles    Jun-24           
10    10     9                 4 Prince Charles    Jun-24           
# ℹ 9,432 more rows
# ℹ 8 more variables: Triage.Category <chr>, Number.of.Attendances <int>,
#   Variation.in.the.number.of.attendances.... <dbl>,
#   Patients.Seen.within.clinically.recommended.times.... <dbl>,
#   Median.Waiting.time.to.treatment..minutes. <dbl>,
#   Patients.who.did.not.wait.for.treatment.... <dbl>,
#   Patients.admitted.from.the.Emergency.Department.... <dbl>, …
…
This showed us a large outlier so we removed this using the code below:

filter(Hosp_wait_time, Facility.HHS.Code != "99999")

# A tibble: 104 × 4
   Facility.HHS.Code avg_attendance median_wait_time No_non_wait
               <int>          <dbl>            <dbl>       <dbl>
 1                 1          4761.             40.2        22.6
 2                 4         10404              50.8        25.1
 3                11          5747.             55.2        34.8
 4                15          6389.             46.5        27.1
 5                16          6463.             52.5        26.1
 6                22          5290.             66.2        27.5
 7                28          4911.             66.6        22.6
 8                29          8901              51.4        28.6
 9                30          5328.             63          24.8
10                32          7682.             68.1        26.7
# ℹ 94 more rows
…
