Preparing data for analysis – UQ Library Training Intensives
…
From now on, we’ll use the pipe syntax as a default.

Note that this material uses the magrittr pipe. The magrittr package is the one that introduced the pipe operator to the R world, and dplyr automatically imports this useful operator when it is loaded. However, the pipe being such a widespread and popular concept in programming and data science, it ended up making it into Base R (the “native” pipe) in 2021 with the release of R 4.1, using a different operator: |>. You can switch your pipe shortcut to the native pipe in Tools > Global options > Code > Use native pipe operator.

4. Create new variables with mutate()

Have a look at what the verb mutate() can do with ?mutate.

Let’s see what the two following variables can be used for:

gapminder %>%
    select(gdpPercap, pop)

# A tibble: 1,704 × 2
   gdpPercap      pop
       <dbl>    <dbl>
 1      779.  8425333
 2      821.  9240934
 3      853. 10267083
 4      836. 11537966
 5      740. 13079460
 6      786. 14880372
 7      978. 12881816
 8      852. 13867957
 9      649. 16317921
10      635. 22227415
# ℹ 1,694 more rows
…
However, a single-value summary is not particularly interesting. summarise() becomes more powerful when used with group_by().

6. Change the scope with group_by()

group_by() changes the scope of the following function(s) from operating on the entire dataset to operating on it group-by-group.

See the effect of the grouping step:

gapminder %>%
    group_by(continent)

# A tibble: 1,704 × 6
   country      year      pop continent lifeExp gdpPercap
   <chr>       <int>    <dbl> <chr>       <dbl>     <dbl>
 1 Afghanistan  1952  8425333 Asia         28.8      779.
 2 Afghanistan  1957  9240934 Asia         30.3      821.
 3 Afghanistan  1962 10267083 Asia         32.0      853.
 4 Afghanistan  1967 11537966 Asia         34.0      836.
 5 Afghanistan  1972 13079460 Asia         36.1      740.
 6 Afghanistan  1977 14880372 Asia         38.4      786.
 7 Afghanistan  1982 12881816 Asia         39.9      978.
 8 Afghanistan  1987 13867957 Asia         40.8      852.
 9 Afghanistan  1992 16317921 Asia         41.7      649.
10 Afghanistan  1997 22227415 Asia         41.8      635.
# ℹ 1,694 more rows
…
