…
``` r
ghg <- read_csv("https://raw.githubusercontent.com/uqlibrary/technology-training/master/R/reports/aus_ghg_2017.csv")
```

> Clicking “Render” will automatically save your `.qmd` file as well as
> the HTML output.

Now, we can add a chunk to show the data, by including this code in it:

``` r
ghg
```

    # A tibble: 28 × 8
        year Agriculture, Forestry and…¹ Forestry - Changes i…² Mining Manufacturing
       <dbl>                       <dbl>                  <dbl>  <dbl>         <dbl>
     1  1990                        286.                  -19.1   44.6          68.0
     2  1991                        266.                  -14.8   46.1          67.9
     3  1992                        197.                  -19.7   48.5          68.1
     4  1993                        178.                  -21.1   48.8          68.5
     5  1994                        168.                  -17.6   46.7          68.3
     6  1995                        144.                  -18.3   48.7          68.1
     7  1996                        148.                  -18.1   51.0          66.2
     8  1997                        156.                  -22.6   54.4          66.9
     9  1998                        140.                  -22.5   55.4          67.5
    10  1999                        151.                  -22.0   53.0          68.8
    # ℹ 18 more rows
    # ℹ abbreviated names: ¹​`Agriculture, Forestry and Fishing`,
    #   ²​`Forestry - Changes in Inventories`
    # ℹ 3 more variables: `Electricity, Gas, Water and Waste Services` <dbl>,
    #   `Services, Construction and Transport` <dbl>, Residential <dbl>
…
